{
  "requeriments": [
    {
      "id": 1,
      "title": "Carga horaria",
      "program-study": [
        "105 horas de clases online por módulo.",
        "Proyectos y evaluaciones en cada módulo.",
        "Lunes de 7PM a 10PM (Tiempo central de México, UTC -6)."
      ]
    },
    {
      "id": 2,
      "title": "Herramientas necesarias",
      "program-study": [
        "Deben tener una conexión a internet para descargar las herramientas",
        "Deben tener un navegador de internet instalado"
      ]
    },
    {
      "id": 3,
      "title": "Conocimiento previo",
      "program-study": [
        "Conocimientos básicos de programación son útiles pero no requeridos",
        "Pensamiento lógico (Rendirás una Prueba de Lógica)"
      ]
    }
  ],
  "modules": [
    {
      "id": 1,
      "title": "Fundamentos de desarrollo",
      "description": "Aprende a maquetar un sitio utilizando HTML entendiendo el significado semántico de cada etiqueta, hacerlo atractivo visualmente usando CSS y sus características avanzadas, finalmente conoce Javascript donde aprenderás conceptos como tipos de datos, métodos comunes, y funciones sin pasar por alto las buenas prácticas al escribir código."
    },
    {
      "id": 2,
      "title": "Javascript Avanzado",
      "description": "Conoce Javascript a profundidad y entiende conceptos como callbacks, closures, callstack. También aprenderás porqué Javascript es asíncrono y como trabajar correctamente con la asincronía. Además aprenderás cuál es el propósito de Javascript en la web y cómo y porqué puede comunicarse con tu página web y con los navegadores."
    },
    {
      "id": 3,
      "title": "Programación Backend con Node.js",
      "description": "Aprenderás cómo se comunican back end y front end mediante HTTP y sus métodos y construirás tu propia API utilizando el patrón MVC con Node y Express, también aprenderás cómo es que se comunica Node con una base de datos relacional para procesar la información utilizando un Sequelize ORM."
    },
    {
      "id": 4,
      "title": "Backend Avanzado y Bases de Datos",
      "description": "Haz pruebas unitarias sobre tu código con Jest, aprende distintas formas de autenticación para tu API como JWT y OAuth. Aprende a crear tus propios middlewares para darle más seguridad a la información, aprenderás cómo enviar correos y también cómo procesar pagos, finalmente documentarás tu API para poder compartirla con tu equipo."
    }
  ]
}
