[
  {
    "id": "1",
    "title": "Bootcamps actualizados",
    "description": "Participa en clases en línea y en vivo todos los días. Realiza ejercicios, trabajos en grupo y chatea con tu instructor para clarificar tus dudas.",
    "image": "/svg/processIcon1.svg"
  },
  {
    "id": "2",
    "title": "Tú ganas primero",
    "description": "Contamos con un equipo dedicado para ayudarte en la búsqueda de trabajo para generar oportunidades laborales.",
    "image": "/svg/processIcon2.svg"
  },
  {
    "id": "3",
    "title": "Tus estudios se pagan solos",
    "description": "No tienes que sacar un crédito ni pagar una matrícula alta, en lugar de eso pagarás una vez que tengas éxito.",
    "image": "/svg/processIcon3.svg"
  }
]
