<svg width="42" height="48" viewBox="0 0 42 48" fill="none" xmlns="http://www.w3.org/2000/svg">
<path d="M41.9929 23.9875C41.9929 27.8673 41.9894 31.7507 42 35.6305C42 35.9225 41.9221 36.0878 41.66 36.239C34.8808 40.1154 28.1086 44.0023 21.3365 47.8927C21.0779 48.0404 20.8973 48.0334 20.6387 47.8856C13.8878 44.0093 7.13341 40.1365 0.378985 36.2637C0.329398 36.2355 0.279811 36.1968 0.226682 36.1757C0.042503 36.1089 -0.0212515 35.9752 0.00708383 35.7888C0.0141677 35.7431 0.00708383 35.6938 0.00708383 35.6481C0.00708383 27.8849 0.0106257 20.1252 0 12.362C0 12.063 0.0956316 11.9047 0.350649 11.7605C7.12987 7.88064 13.902 3.99728 20.6741 0.103366C20.9079 -0.0303002 21.0708 -0.0373353 21.3081 0.0998487C28.098 4.00432 34.8914 7.90175 41.6919 11.7886C41.9362 11.9293 42 12.0806 42 12.3444C41.9929 16.2278 41.9929 20.1076 41.9929 23.9875Z" fill="#EA4959"/>
<path d="M19.8583 38.5V35.0958C18.4597 34.7792 17.2522 34.1722 16.2357 33.275C15.2192 32.3778 14.4739 31.1111 14 29.475L16.9292 28.2875C17.325 29.5542 17.9124 30.5174 18.6914 31.1771C19.4704 31.8368 20.4927 32.1667 21.7583 32.1667C22.8403 32.1667 23.7576 31.9223 24.5102 31.4336C25.2628 30.9449 25.6386 30.1864 25.6375 29.1583C25.6375 28.2347 25.3472 27.5027 24.7667 26.9623C24.1861 26.4218 22.8403 25.808 20.7292 25.1208C18.4597 24.4083 16.9028 23.557 16.0583 22.5669C15.2139 21.5768 14.7917 20.3698 14.7917 18.9458C14.7917 17.2306 15.3458 15.8979 16.4542 14.9479C17.5625 13.9979 18.6972 13.4569 19.8583 13.325V10H23.025V13.325C24.3444 13.5361 25.4333 14.018 26.2914 14.7706C27.1496 15.5232 27.7761 16.4399 28.1708 17.5208L25.2417 18.7875C24.925 17.9431 24.4764 17.3097 23.8958 16.8875C23.3153 16.4653 22.5236 16.2542 21.5208 16.2542C20.3597 16.2542 19.4757 16.5117 18.8687 17.0268C18.2618 17.5419 17.9583 18.1816 17.9583 18.9458C17.9583 19.8167 18.3542 20.5028 19.1458 21.0042C19.9375 21.5056 21.3097 22.0333 23.2625 22.5875C25.0833 23.1153 26.4624 23.9534 27.3997 25.1018C28.3371 26.2503 28.8052 27.5761 28.8042 29.0792C28.8042 30.9528 28.25 32.3778 27.1417 33.3542C26.0333 34.3306 24.6611 34.9375 23.025 35.175V38.5H19.8583Z" fill="white"/>
</svg>
