[
  {
    "id": 1,
    "title": "“¿Cómo es trabajar en Globant Monterrey como programador a los 45 años?”",
    "author": "Alejandro Martínez",
    "link": "MrPX6iQBml0"
  },
  {
    "id": 2,
    "title": "“¿Cómo es trabajar como programador en Venezuela?”",
    "author": "Alejandro Zapata",
    "link": "n78_YwvjmG0"
  },
  {
    "id": 3,
    "title": "“¿De ABOGADO a PROGRAMADOR?”",
    "author": "Ricardo Gutierrez",
    "link": "hdARunlAQLs"
  },
  {
    "id": 4,
    "title": "“Programadora COLOMBIANA trabajando para una empresa de BRASIL”",
    "author": "Cindy Arbelaez",
    "link": "OwuTheos_do"
  },
  {
    "id": 5,
    "title": "“¿Cómo es trabajar como programador en UNA STARTUP?”",
    "author": "Saul Solís",
    "link": "MzxwNuXVmos"
  },
  {
    "id": 6,
    "title": "“¿Cómo es trabajar en un banco como programador?”",
    "author": "Edgar Olvera",
    "link": "sRKss391THE"
  },
  {
    "id": 7,
    "title": "“¿Cómo es trabajar como programador en Globant?”",
    "author": "Yagel Salazar",
    "link": "-neD6zcOaVE"
  },
  {
    "id": 8,
    "title": "“¿Cómo es trabajar en una empresa desarrolladora de software grande de Colombia?”",
    "author": "Sergio Valencia",
    "link": "jTMtVqZiNmA"
  },
  {
    "id": 9,
    "title": "“CONTRATADA 2 meses después de terminar de estudiar en Academlo”",
    "author": "Stefany Porras",
    "link": "HkuhXSRU9Sk"
  },
  {
    "id": 10,
    "title": "“Me especialicé como programador, después de haber ido a la universidad”",
    "author": "Andres Ortiz",
    "link": "h6HBWrUQ2B"
  },
  {
    "id": 11,
    "title": "“Solo 5 meses de estudio y FUI CONTRATADO”",
    "author": "Yeison Arango",
    "link": "5oTTBPC_gjk"
  },
  {
    "id": 12,
    "title": "“Conseguí un salario de 1200 usd en MI PRIMER EMPLEO COMO PROGRAMADOR”",
    "author": "Gonzalo romero",
    "link": "Yoq0ZbQGFO8"
  },
  {
    "id": 13,
    "title": "“Solo 4 meses de estudio y CONSEGUÍ EMPLEO”",
    "author": "Mauricio Guerra",
    "link": "WpAoFmTfJK0"
  }
]
